[
  {
    "id": "seo-a-full",
    "title": "SEO a full",
    "author": "Ken Fox",
    "creation_date": "07-24-2015",
    "summary": "Nunc interdum mi neque, et  sollicitudin purus fermentum ut. Suspendisse faucibus nibh odio, a vehicula eros pharetra in. Maecenas  ullamcorper commodo rutrum. In iaculis lectus vel augue eleifend dignissim. Aenean viverra semper sollicitudin.",
    "body": "Full Text",
    "featured": "../assets/images/slidermain/1200-slide-1.png",
    "category": "SEO",
    "comments": []
  },
  {
    "id": "development-eleifend-dignissim",
    "title": "Development eleifend dignissim",
    "author": "Lidiexy Alonso",
    "creation_date": "08-18-2015",
    "summary": "Mauris dolor sapien, malesuada at interdum ut, hendrerit eget lorem. Nunc interdum mi neque, et  sollicitudin purus fermentum ut. Suspendisse faucibus nibh odio, a vehicula eros pharetra in. Maecenas  ullamcorper commodo rutrum. In iaculis lectus vel augue eleifend dignissim. Aenean viverra semper sollicitudin.",
    "body": "Some HTML body",
    "featured": "../assets/images/slidermain/1200-slide-2.png",
    "category": "Development",
    "comments": [
      {
        "comment_id": "0000000001",
        "comment_author": "email@email.com",
        "comment_body": "Mauris dolor sapien, malesuada at interdum ut, hendrerit eget lorem.",
        "comment_creationdate": "July 24, 2015 at 9:15am",
        "comment_approved": true
      },
      {
        "comment_id": "0000000002",
        "comment_author": "email@email.com",
        "comment_body": "Suspendisse faucibus nibh odio, a vehicula eros pharetra in. Maecenas  ullamcorper commodo rutrum. In iaculis lectus vel augue eleifend dignissim. Aenean viverra semper sollicitudin.",
        "comment_creationdate": "August 13, 2015 at 3:23pm",
        "comment_approved": true
      },
      {
        "comment_id": "c_55d37350e1adc2.69671303",
        "comment_author": "lidiexy@yahoo.com",
        "comment_body": "Algo",
        "comment_creationdate": "August 18, 2015 at 01:02pm",
        "comment_approved": false
      }
    ]
  },
  {
    "id": "hello-other-seo-blog",
    "title": "Hello Other SEO Blog",
    "author": "Ken Fox",
    "creation_date": "07-24-2015",
    "summary": "Nunc interdum mi neque, et  sollicitudin purus fermentum ut. Suspendisse faucibus nibh odio, a vehicula eros pharetra in. Maecenas  ullamcorper commodo rutrum. In iaculis lectus vel augue eleifend dignissim. Aenean viverra semper sollicitudin.",
    "body": "Full Text",
    "featured": "../assets/images/slidermain/1200-slide-1.png",
    "category": "SEO",
    "comments": []
  },
  {
    "id": "another-design",
    "title": "Another Design",
    "author": "Pejmon Hosseinzadeh",
    "creation_date": "08-13-2015",
    "summary": "Illustrator is the best software, et  sollicitudin purus fermentum ut. Suspendisse faucibus nibh odio, a vehicula eros pharetra in. Maecenas  ullamcorper commodo rutrum. In iaculis lectus vel augue eleifend dignissim. Aenean viverra semper sollicitudin.",
    "body": "Full Text",
    "featured": "../assets/images/slidermain/1200-slide-1.png",
    "category": "Design",
    "comments": []
  }
]